# Blender v2.72 (sub 0) OBJ File: ''
# www.blender.org
mtllib backwall.mtl
o backWall
v 1.000000 1.590000 -1.040000
v -1.020000 1.590000 -1.040000
v -0.990000 0.000000 -1.040000
v 1.000000 0.000000 -1.040000
v 0.2500000 1.20000 -1.040000
v -0.250000 1.20000 -1.040000
v -0.250000 0.400000 -1.040000
v 0.2500000 0.400000 -1.040000
vt 0.000000 1.000000
usemtl backWall
s 1
f 1/1 2/1 5/1
f 2/1 6/1 5/1
f 6/1 2/1 3/1
f 3/1 7/1 6/1
f 7/1 3/1 4/1
f 8/1 7/1 4/1
f 1/1 8/1 4/1
f 1/1 5/1 8/1

