# Blender v2.72 (sub 0) OBJ File: ''
# www.blender.org
mtllib walls.mtl
o ceiling
v 1.000000 1.590000 -1.040000
v 1.000000 1.590000 0.990000
v -1.020000 1.590000 0.990000
v -1.020000 1.590000 -1.040000
vt 0.000000 1.000000
usemtl ceiling
s 1
f 1/1 2/1 3/1
f 4/1 1/1 3/1
